A2 3 6
A3 3 9
A4 3 12
A5 3 15
B1 3 3
B2 3 9
B3 3 27
B4 3 81
C 3 21
D 3 54
E 3 20
A2 10 20
A3 10 30
A4 10 40
A5 10 50
B1 10 10
B2 10 100
B3 10 1000
B4 10 10000
C 10 2002
D 10 2000
E 10 440
A2 31 62
A3 31 93
A4 31 124
A5 31 155
B1 31 31
B2 31 961
B3 31 29791
B4 31 923521
C 31 324632
D 31 59582
E 31 10912
A2 100 200
A3 100 300
A4 100 400
A5 100 500
B1 100 100
B2 100 10000
B3 100 1000000
B4 100 100000000
C 100 91962520
D 100 2000000
E 100 343400
A2 316 632
A3 316 948
A4 316 1264
A5 316 1580
B1 316 316
B2 316 99856
B3 316 31554496
B4 316 9971220736
C 316 27097728064
D 316 63108992
E 316 10618232
